^C:\USERS\ANTON\ONEDRIVE\DOCUMENTI\PIETRO\MASTER\MATERIALE_DIDATTICO\ADVANCEDC++\HOMEWORK\LISTPROJECT\LISTPROJECT\MAIN.CPP
C:\USERS\ANTON\ONEDRIVE\DOCUMENTI\PIETRO\MASTER\MATERIALE_DIDATTICO\ADVANCEDC++\HOMEWORK\LISTPROJECT\LISTPROJECT\X64\DEBUG\VC142.PDB
C:\USERS\ANTON\ONEDRIVE\DOCUMENTI\PIETRO\MASTER\MATERIALE_DIDATTICO\ADVANCEDC++\HOMEWORK\LISTPROJECT\LISTPROJECT\X64\DEBUG\VC142.IDB
C:\USERS\ANTON\ONEDRIVE\DOCUMENTI\PIETRO\MASTER\MATERIALE_DIDATTICO\ADVANCEDC++\HOMEWORK\LISTPROJECT\LISTPROJECT\X64\DEBUG\MAIN.OBJ
